{
  "stat": {
    "total": 28
  },
  "url": "",
  "items": [
    {
      "pid": "446681834",
      "type": "offer",
      "index": "21",
      "is-best": "",
      "is-cpc": "1",
      "shopName": "GSM24",
      "modelId": "654054",
      "title": "Apple iPhone 6 16GB Silver",
      "counterTitle": "Apple iPhone 6 16GB Silver",
      "counterType": "position",
      "price": "14 790 р.",
      "price_unformatted": "14790.0",
      "media": [
        {
          "main": 1,
          "filename": "//static.price.ru/-/2801-apple-iphone-6-16gb/93971b60bdeda1ab2da23ef4598dbee1/mob-mir-shop.ru/wa-data/public/shop/products/06/68/6806/images/14602/14602.970.jpg"
        },
        {
          "filename": "//static.price.ru/-/2801-apple-iphone-6-16gb/302703ba2d93702a8d4e0a0fbf2df3b7/mob-mir-shop.ru/wa-data/public/shop/products/06/68/6806/images/14604/14604.970.jpg"
        },
        {
          "filename": "//static.price.ru/-/2801-apple-iphone-6-16gb/e811cd638458986ce5d11d5d45a2c349/mob-mir-shop.ru/wa-data/public/shop/products/06/68/6806/images/14603/14603.970.jpg"
        },
        {
          "filename": "//static.price.ru/-/2801-apple-iphone-6-16gb/9b3a7e673d68fe6ca6fffe8ed373d5ee/mob-mir-shop.ru/wa-data/public/shop/products/06/68/6806/images/14600/14600.970.jpg"
        },
        {
          "filename": "//static.price.ru/-/2801-apple-iphone-6-16gb/2a1a5ae738852ba6ce44dd02a8429045/mob-mir-shop.ru/wa-data/public/shop/products/06/68/6806/images/14601/14601.970.jpg"
        }
      ],
      "rating": "50",
      "url": "//track.price.ru/click?s=4CGLAAyiqNBqw4qRadMakmHpjspnhyDirmNJXo6VTkxRkgGbYqgKstPp6xq0B1Mt70zUuHU-ObBNx0oFnB6FJLTSTviUjt-Yw1wJHOEh-jO-efrjYmsxE5T0o_LRZ0Jv0_Pj90rpZ6cB60Kv-XfTN5hVoo-4l7jyk4OhDkffDTF5vyf5WyA_H12tKCzhvoXTssEgNNNQ-A-h6M4xPCy_TqB3FVyfKl64QvW1M4CeHlsTmVz7wT5zAOeW9IlzoKMb-vAKxz1YgmHWO6PLOJkYZ91TOLm1bKPAPVm4Tp9g2pB6GJ2jiJo7cc09wG3s5mnH2LBdrAIM5uE-39Xt2oInv4ksE9bUqoJgJ9QfR-55MW2epF8NNb0Ln5dfhpMxDr1veSdZprMk2C8aCvQN3sSI-BlxnaFDhq_Q1gr9hJUd68_5iCjYOZ343Om72o_hV83Exu4lAdLbejAqoZx1M-VwL2VCd4w7fx9KbQM6-HhzBXrexzs7Obpn-cW5yryj5xLZa1koAtcbLADjYT1D6vidOZmHnkZNOOuw_n35RvX_aAdRnf3OIXEQzbSQsD7cqTzWC2aR_1Tzgf6LPkP5DpErFXYz3Tn2lxuPJn5KS4miV2-kQYuqqIqaUBx-aMmGftQU4CjL4iBTWZ99uwRUxWfTzorKQZDVWujW4Bh6f9KiVgPsTadBm2vWmPsZgmBgalEUFD-_z5_uHlNCextjAa0uhGyEiKDjggklg2oMw7yh6I_UWwHznlvxryUHLL3HA8W0qwPkj0kacqmcs49e8ROx-aFty65B4eG9ZZ5wMSgEYqz98dMNZJ7UqEOsgqKI9ItHUnI2qkmXzEcjxGVB2yJEBIj0RgqZalU19icoXK2uGY38sVqs_FQilJKeehljVaECIg1i0PT5wVfsDAHsKMakEN8Y33xxyCzlJ1V-QvPAbEVGdBi_Le0E9eyNsWEIgtRnb0Si4jkkBdCgv2rGQ7SBTq4AcZ3YOH3JZZFqEmBlIeUTOdJg21yRLjZBCXsLajglJe4JEFQpMurSThBMOiXQ8E-_G6bh8RDDnQ8LIq6QxeM=&page=&block=0&slot=21",
      "autobid": "6",
      "availability": "в наличии",
      "warranty": "производителя",
      "delivery": "350 р.",
      "sales_note": "",
      "pickup": "",
      "description": "",
      "full_description": "",
      "link": [
        {
          "name": "href",
          "value": "//track.price.ru/click?s=4CGLAAyiqNBqw4qRadMakmHpjspnhyDirmNJXo6VTkxRkgGbYqgKstPp6xq0B1Mt70zUuHU-ObBNx0oFnB6FJLTSTviUjt-Yw1wJHOEh-jO-efrjYmsxE5T0o_LRZ0Jv0_Pj90rpZ6cB60Kv-XfTN5hVoo-4l7jyk4OhDkffDTF5vyf5WyA_H12tKCzhvoXTssEgNNNQ-A-h6M4xPCy_TqB3FVyfKl64QvW1M4CeHlsTmVz7wT5zAOeW9IlzoKMb-vAKxz1YgmHWO6PLOJkYZ91TOLm1bKPAPVm4Tp9g2pB6GJ2jiJo7cc09wG3s5mnH2LBdrAIM5uE-39Xt2oInv4ksE9bUqoJgJ9QfR-55MW2epF8NNb0Ln5dfhpMxDr1veSdZprMk2C8aCvQN3sSI-BlxnaFDhq_Q1gr9hJUd68_5iCjYOZ343Om72o_hV83Exu4lAdLbejAqoZx1M-VwL2VCd4w7fx9KbQM6-HhzBXrexzs7Obpn-cW5yryj5xLZa1koAtcbLADjYT1D6vidOZmHnkZNOOuw_n35RvX_aAdRnf3OIXEQzbSQsD7cqTzWC2aR_1Tzgf6LPkP5DpErFXYz3Tn2lxuPJn5KS4miV2-kQYuqqIqaUBx-aMmGftQU4CjL4iBTWZ99uwRUxWfTzorKQZDVWujW4Bh6f9KiVgPsTadBm2vWmPsZgmBgalEUFD-_z5_uHlNCextjAa0uhGyEiKDjggklg2oMw7yh6I_UWwHznlvxryUHLL3HA8W0qwPkj0kacqmcs49e8ROx-aFty65B4eG9ZZ5wMSgEYqz98dMNZJ7UqEOsgqKI9ItHUnI2qkmXzEcjxGVB2yJEBIj0RgqZalU19icoXK2uGY38sVqs_FQilJKeehljVaECIg1i0PT5wVfsDAHsKMakEN8Y33xxyCzlJ1V-QvPAbEVGdBi_Le0E9eyNsWEIgtRnb0Si4jkkBdCgv2rGQ7SBTq4AcZ3YOH3JZZFqEmBlIeUTOdJg21yRLjZBCXsLajglJe4JEFQpMurSThBMOiXQ8E-_G6bh8RDDnQ8LIq6QxeM=&page=&block=0&slot=21"
        },
        {
          "name": "target",
          "value": "_blank"
        },
        {
          "name": "data-begun",
          "value": "begun"
        },
        {
          "name": "data-cpc",
          "value": "cpc"
        },
        {
          "name": "data-gtm",
          "value": "gtm,6,969272,14790.0"
        },
        {
          "name": "data-fbqp",
          "value": "fbqp,446681834,14790.0"
        }
      ],
      "modification_attributes": [
        {
          "pid": "11737-446681834",
          "id": "11737",
          "name": "Объем встроенной памяти",
          "value": "16 Гб",
          "display_value": "16 Гб",
          "unit": "",
          "type": "ENUM",
          "percent_worse": ""
        }
      ],
      "shop": {
        "name": "GSM24",
        "counterName": "GSM24",
        "url": "http://mob-mir-shop.ru/",
        "id": "969272"
      },
      "delivery_notes": "300 р. в пределах МКАД.",
      "modify_data": "20.09.2017",
      "trackview": "//track.price.ru/evt/?d=eyJzbG90IjogMjEsICJtb2RlbF9pZCI6IDY1NDA1NCwgInNob3dfaWQiOiAiZDc3YWFmYjQtMWYzNC00MGE5LThiYjEtZGUxNzAzZGEzNjdjIiwgImJpZCI6IDMsICJkaXNjb3VudCI6IDAsICJvZmZlcl9pZCI6IDQ0NjY4MTgzNCwgInFzIjogNTQ4LjAsICJzZXNzaW9uX2lkIjogIjk2NDYyZTcxLWZiMTAtNGI1ZS1iNTc3LTBlODZhYWJiYjQyZiIsICJicmFuZF9pZCI6IDM1MywgImNhc2hiYWNrIjogMC4wLCAibGRjb3N0IjogMCwgImhhc19waG90byI6IDEsICJwcmljZWxpc3RfaWQiOiA5NjkyNzIsICJjYXRlZ29yeV9pZCI6ICIyODAxIiwgInR5cGUiOiAib2ZmZXItdmlldyIsICJwcmljZSI6IDE0NzkwLjB9"
    },
    {
      "pid": "480461998",
      "type": "offer",
      "index": "22",
      "is-best": "",
      "is-cpc": "1",
      "shopName": "KupiPhone",
      "modelId": "654054",
      "title": "Apple iPhone 6 16Gb Space Gold без Touch ID",
      "counterTitle": "Apple iPhone 6 16Gb Space Gold без Touch ID",
      "counterType": "position",
      "price": "10 790 р.",
      "price_unformatted": "10790.0",
      "media": [
        {
          "main": 1,
          "filename": "//static.price.ru/-/2801-apple-iphone-6-16gb/487503d3a14c0a161204d2c90589f4fa/static.price.ru/images/models/-/smartfon/apple-iphone-6-16gb/9d4e44fa699247b78fa7efb50f566aeb.PNG"
        }
      ],
      "rating": "50",
      "url": "//track.price.ru/click?s=4CGLAAyiqNBqw4qRadMakmHpjspnhyDirmNJXo6VTkxRkgGbYqgKstPp6xq0B1MtovAUTXASyj6_th2Ll4rPfbTSTviUjt-Yw1wJHOEh-jO-efrjYmsxE5T0o_LRZ0Jv0_Pj90rpZ6cB60Kv-XfTN5hVoo-4l7jyk4OhDkffDTFzXGGCrWyaMMwprxhhdjtVssEgNNNQ-A-h6M4xPCy_TqB3FVyfKl64QvW1M4CeHlsTmVz7wT5zAOeW9IlzoKMb-vAKxz1YgmHWO6PLOJkYZ91TOLm1bKPAPVm4Tp9g2pB6GJ2jiJo7cc09wG3s5mnH2LBdrAIM5uE-39Xt2oInv4ksE9bUqoJgJ9QfR-55MW2epF8NNb0Ln5dfhpMxDr1vDV3iuo6qJ64R0hFUm58bpTxHtsBI567UfeGUoMWZHZ9zSPrVZ4qyRh_u4i5XziFKkFmVWgJ9veqy4zYPJpqbmWZzkxSv-7poyl9ti42aexODjIIIYrAKolupcss7lHHQZZDIQWdOJEJvMSkQExOZK-FOiDoMoh7kMMCXb4UgohnoGGJsVLwGCrSIc8ezGihpzIY-r248K9XQCeKhqFHZKvHl28m03ksxRWBoWfBMd5E2KyfI8DDkf23KMPX_EVqd9vcCo8z6D-7i97VGum4hmgaDrk8Es_nH_k5zRlGA_HHxVnC-hdO1QmDygNXPVSlbJSSMeoS6sts6DNoYgrLT8luJMMZv01il_XseWADItRehLVXJGA05mFDH-1CFNfG87uQ773lZbjUqzQXuE9cwAEYTbpTN05IaPwxNSHzdJP3xaH8LLvqG5apJqXa4f1Tam3rXng1_PMCWP-SahUcVweSgDT_LY1Bnzxp6_X9WWqRQck4HA9zE_vK0AcVV5F61o0s_V0uma4flhOrH8y9u05Rdgv5K9rR8_o7V0pIRMusytQ1VZsQPsSnBb8DBtHyDszIfioIe6rJ6_VH1e6tL2Ae6hCuqepon74UifDTYHXI8dz0dXkTjjK87RCMb6Fpj1GweKq2H-FiIjjitiDWnDU-_G6bh8RDDnQ8LIq6QxeM=&page=&block=0&slot=22",
      "autobid": "6",
      "partnumber": "738~01",
      "availability": "в наличии",
      "delivery": "Курьерская",
      "sales_note": "",
      "pickup": "",
      "description": "Вес: 600.00000000 г",
      "full_description": "Вес: 600.00000000 г",
      "link": [
        {
          "name": "href",
          "value": "//track.price.ru/click?s=4CGLAAyiqNBqw4qRadMakmHpjspnhyDirmNJXo6VTkxRkgGbYqgKstPp6xq0B1MtovAUTXASyj6_th2Ll4rPfbTSTviUjt-Yw1wJHOEh-jO-efrjYmsxE5T0o_LRZ0Jv0_Pj90rpZ6cB60Kv-XfTN5hVoo-4l7jyk4OhDkffDTFzXGGCrWyaMMwprxhhdjtVssEgNNNQ-A-h6M4xPCy_TqB3FVyfKl64QvW1M4CeHlsTmVz7wT5zAOeW9IlzoKMb-vAKxz1YgmHWO6PLOJkYZ91TOLm1bKPAPVm4Tp9g2pB6GJ2jiJo7cc09wG3s5mnH2LBdrAIM5uE-39Xt2oInv4ksE9bUqoJgJ9QfR-55MW2epF8NNb0Ln5dfhpMxDr1vDV3iuo6qJ64R0hFUm58bpTxHtsBI567UfeGUoMWZHZ9zSPrVZ4qyRh_u4i5XziFKkFmVWgJ9veqy4zYPJpqbmWZzkxSv-7poyl9ti42aexODjIIIYrAKolupcss7lHHQZZDIQWdOJEJvMSkQExOZK-FOiDoMoh7kMMCXb4UgohnoGGJsVLwGCrSIc8ezGihpzIY-r248K9XQCeKhqFHZKvHl28m03ksxRWBoWfBMd5E2KyfI8DDkf23KMPX_EVqd9vcCo8z6D-7i97VGum4hmgaDrk8Es_nH_k5zRlGA_HHxVnC-hdO1QmDygNXPVSlbJSSMeoS6sts6DNoYgrLT8luJMMZv01il_XseWADItRehLVXJGA05mFDH-1CFNfG87uQ773lZbjUqzQXuE9cwAEYTbpTN05IaPwxNSHzdJP3xaH8LLvqG5apJqXa4f1Tam3rXng1_PMCWP-SahUcVweSgDT_LY1Bnzxp6_X9WWqRQck4HA9zE_vK0AcVV5F61o0s_V0uma4flhOrH8y9u05Rdgv5K9rR8_o7V0pIRMusytQ1VZsQPsSnBb8DBtHyDszIfioIe6rJ6_VH1e6tL2Ae6hCuqepon74UifDTYHXI8dz0dXkTjjK87RCMb6Fpj1GweKq2H-FiIjjitiDWnDU-_G6bh8RDDnQ8LIq6QxeM=&page=&block=0&slot=22"
        },
        {
          "name": "target",
          "value": "_blank"
        },
        {
          "name": "data-begun",
          "value": "begun"
        },
        {
          "name": "data-cpc",
          "value": "cpc"
        },
        {
          "name": "data-gtm",
          "value": "gtm,6,976821,10790.0"
        },
        {
          "name": "data-fbqp",
          "value": "fbqp,480461998,10790.0"
        }
      ],
      "modification_attributes": [
        {
          "pid": "11737-480461998",
          "id": "11737",
          "name": "Объем встроенной памяти",
          "value": "16 Гб",
          "display_value": "16 Гб",
          "unit": "",
          "type": "ENUM",
          "percent_worse": ""
        }
      ],
      "shop": {
        "name": "KupiPhone",
        "counterName": "KupiPhone",
        "url": "http://kupi-phone.ru/",
        "id": "976821"
      },
      "delivery_notes": "Курьерская",
      "modify_data": "20.09.2017",
      "trackview": "//track.price.ru/evt/?d=eyJzbG90IjogMjIsICJtb2RlbF9pZCI6IDY1NDA1NCwgInNob3dfaWQiOiAiZDc3YWFmYjQtMWYzNC00MGE5LThiYjEtZGUxNzAzZGEzNjdjIiwgImJpZCI6IDMsICJkaXNjb3VudCI6IDAsICJvZmZlcl9pZCI6IDQ4MDQ2MTk5OCwgInFzIjogNDEyLjAsICJzZXNzaW9uX2lkIjogIjk2NDYyZTcxLWZiMTAtNGI1ZS1iNTc3LTBlODZhYWJiYjQyZiIsICJicmFuZF9pZCI6IDM1MywgImNhc2hiYWNrIjogMC4wLCAibGRjb3N0IjogLTEsICJoYXNfcGhvdG8iOiAxLCAicHJpY2VsaXN0X2lkIjogOTc2ODIxLCAiY2F0ZWdvcnlfaWQiOiAiMjgwMSIsICJ0eXBlIjogIm9mZmVyLXZpZXciLCAicHJpY2UiOiAxMDc5MC4wfQ=="
    }
  ]
}